{
	"info": {
		"_postman_id": "1972fe9b-595a-493f-ae9c-94120d07c8b0",
		"name": "eyeswift",
		"schema": "https://schema.getpostman.com/json/collection/v2.1.0/collection.json"
	},
	"item": [
		{
			"name": "eyeswift admin",
			"item": [
				{
					"name": "webapp-login-SUPER admin",
					"event": [
						{
							"listen": "test",
							"script": {
								"id": "3bbdbda7-36f3-4e96-b6b6-fc2d449996b3",
								"exec": [
									"if (responseCode.code === 200) {\r",
									"    try {\r",
									"        var location_data = JSON.parse(responseBody),\r",
									"            token = location_data.token;\r",
									"            UserID = location_data.profile.UserID\r",
									"            role = location_data.role\r",
									"    } catch (e) {\r",
									"        console.log(e);\r",
									"        return\r",
									"    }\r",
									"    if(role && role.indexOf(\"Patient\") > -1){\r",
									"        postman.setEnvironmentVariable('PatientToken', token);\r",
									"        postman.setEnvironmentVariable('PatientUserName', UserID);\r",
									"//postman.getEnvironmentVariable(\"key\");\r",
									"    }\r",
									"    if(role && role.indexOf(\"Doctor\") > -1){\r",
									"        postman.setEnvironmentVariable('DoctorToken', token);\r",
									"        postman.setEnvironmentVariable('DoctorUserName', UserID);\r",
									"    }\r",
									"    if(role && role.indexOf(\"EyeSwiftAdmin\") > -1){\r",
									"        postman.setEnvironmentVariable('EyeSwiftAdminToken', token);\r",
									"        postman.setEnvironmentVariable('EyeSwiftAdminUserName', UserID);\r",
									"    }\r",
									"        if(role && role.indexOf(\"EyeSwiftSuperAdmin\") > -1){\r",
									"        postman.setEnvironmentVariable('EyeSwiftSuperAdminToken', token);\r",
									"        postman.setEnvironmentVariable('EyeSwiftSuperAdminUserName', UserID);\r",
									"    }\r",
									"    \r",
									"        \r",
									"}"
								],
								"type": "text/javascript"
							}
						}
					],
					"request": {
						"method": "POST",
						"header": [
							{
								"key": "Content-Type",
								"value": "application/json",
								"type": "text"
							}
						],
						"body": {
							"mode": "raw",
							"raw": "\n{\n\t\"Email1\":\"info@cure-sight.com\",\n\t\"Password\":\"Cure2020!@\"\n}",
							"options": {
								"raw": {
									"language": "json"
								}
							}
						},
						"url": {
							"raw": "{{URL}}/api/v1/webapp/signin",
							"host": [
								"{{URL}}"
							],
							"path": [
								"api",
								"v1",
								"webapp",
								"signin"
							]
						}
					},
					"response": []
				},
				{
					"name": "2fa admin signin",
					"event": [
						{
							"listen": "test",
							"script": {
								"id": "67a177a5-0c24-453b-b78c-de6a182c315d",
								"exec": [
									"if (responseCode.code === 200) {",
									"    try {",
									"        var location_data = JSON.parse(responseBody),",
									"            token = location_data.token;",
									"            UserID = location_data.profile.UserID",
									"            role = location_data.role",
									"    } catch (e) {",
									"        console.log(e);",
									"        return",
									"    }",
									"    if(role && role.indexOf(\"Patient\") > -1){",
									"        postman.setEnvironmentVariable('PatientToken', token);",
									"        postman.setEnvironmentVariable('PatientUserName', UserID);",
									"//postman.getEnvironmentVariable(\"key\");",
									"    }",
									"    if(role && role.indexOf(\"Doctor\") > -1){",
									"        postman.setEnvironmentVariable('DoctorToken', token);",
									"        postman.setEnvironmentVariable('DoctorUserName', UserID);",
									"    }",
									"    if(role && role.indexOf(\"EyeSwiftAdmin\") > -1){",
									"        postman.setEnvironmentVariable('LiberDiAdminToken', token);",
									"        postman.setEnvironmentVariable('LiberDiAdminUserName', UserID);",
									"    }",
									"        if(role && role.indexOf(\"EyeSwiftSuperAdmin\") > -1){",
									"        postman.setEnvironmentVariable('EyeSwiftSuperToken', token);",
									"        postman.setEnvironmentVariable('EyeSwiftSuperUserName', UserID);",
									"    }",
									"    ",
									"        ",
									"}"
								],
								"type": "text/javascript"
							}
						}
					],
					"request": {
						"method": "POST",
						"header": [
							{
								"key": "Authorization",
								"value": "eyJhbGciOiJIUzI1NiIsInR5cCI6IkpXVCJ9.eyJpc3MiOiJDdXJlU2lnaHQiLCJzdWIiOiJpbmZvQGN1cmUtc2lnaHQuY29tIiwicm9sZSI6WyJDdXJlU2lnaHRTdXBlckFkbWluIl0sImlhdCI6MTU5NjA5NzgxNCwiZXhwIjoxNTk2MDk3OTk0fQ.vfSdwAxWAd9z5GD0VDoBGCFIDomVle5-0SDAL2zAE6A",
								"type": "text"
							}
						],
						"body": {
							"mode": "raw",
							"raw": "{\n\t\"TwoFaCode\":\"921360\"}",
							"options": {
								"raw": {
									"language": "json"
								}
							}
						},
						"url": {
							"raw": "{{URL}}/api/v1/webapp/signin/2fa",
							"host": [
								"{{URL}}"
							],
							"path": [
								"api",
								"v1",
								"webapp",
								"signin",
								"2fa"
							]
						}
					},
					"response": []
				},
				{
					"name": "create new admin",
					"event": [
						{
							"listen": "prerequest",
							"script": {
								"id": "1b48cc5a-222c-4608-a599-496444e26286",
								"exec": [
									"function randomString(len) {\r",
									"    let str = \"\";\r",
									"    let possible = \"ABCEFGHIJKLMNOQRSTUVWXYZabcdefghijklmnopqrstuvwxyz01234567890123456789\";\r",
									"\r",
									"    for (let i = 0; i < len; i++)\r",
									"        str += possible.charAt(Math.floor(Math.random() * possible.length));\r",
									"    return str;\r",
									"}\r",
									"\r",
									"pm.environment.set(\"email\", randomString(6) + '@' + randomString(6) + '.com');\r",
									"pm.environment.set(\"socialId\", randomString(6));"
								],
								"type": "text/javascript"
							}
						}
					],
					"request": {
						"method": "POST",
						"header": [
							{
								"key": "Content-Type",
								"type": "text",
								"value": "application/json"
							},
							{
								"key": "Authorization",
								"type": "text",
								"value": "{{EyeSwiftSuperAdminToken}}"
							}
						],
						"body": {
							"mode": "raw",
							"raw": "{\n    \"FirstName\":\"ron\",\n    \"LastName\":\"yehgtgufhhghgghda23\",\n    \"Password\": \"ffj218\",\n\t\"Email1\":\"ron_y@itdgroup.co\",\n    \"PhoneNumber\":\"765756\",\n    \"TwoFA\":true\n\n}",
							"options": {
								"raw": {
									"language": "json"
								}
							}
						},
						"url": {
							"raw": "{{URL}}/api/v1/webapp/eyeSwiftAdmins/{{EyeSwiftSuperAdminUserName}}/admins/signup",
							"host": [
								"{{URL}}"
							],
							"path": [
								"api",
								"v1",
								"webapp",
								"eyeSwiftAdmins",
								"{{EyeSwiftSuperAdminUserName}}",
								"admins",
								"signup"
							]
						}
					},
					"response": []
				},
				{
					"name": "webapp-login admin",
					"event": [
						{
							"listen": "test",
							"script": {
								"id": "ea6979bc-d78d-47a3-a4db-b4760889d6b4",
								"exec": [
									"if (responseCode.code === 200) {\r",
									"    try {\r",
									"        var location_data = JSON.parse(responseBody),\r",
									"            token = location_data.token;\r",
									"        UserID = location_data.profile.UserID\r",
									"        role = location_data.role\r",
									"    } catch (e) {\r",
									"        console.log(e);\r",
									"        return\r",
									"    }\r",
									"    if (role && role.indexOf(\"Patient\") > -1) {\r",
									"        postman.setEnvironmentVariable('PatientToken', token);\r",
									"        postman.setEnvironmentVariable('PatientUserName', UserID);\r",
									"        //postman.getEnvironmentVariable(\"key\");\r",
									"    }\r",
									"    if (role && role.indexOf(\"Doctor\") > -1) {\r",
									"        postman.setEnvironmentVariable('DoctorToken', token);\r",
									"        postman.setEnvironmentVariable('DoctorUserName', UserID);\r",
									"    }\r",
									"    if (role && role.indexOf(\"EyeSwiftAdmin\") > -1) {\r",
									"        postman.setEnvironmentVariable('EyeSwiftAdminToken', token);\r",
									"        postman.setEnvironmentVariable('EyeSwiftAdminUserName', UserID);\r",
									"    }\r",
									"\r",
									"    if (role && role.indexOf(\"EyeSwiftSuperAdmin\") > -1) {\r",
									"        postman.setEnvironmentVariable('EyeSwiftSuperAdminToken', token);\r",
									"        postman.setEnvironmentVariable('EyeSwiftSuperAdminUserName', UserID);\r",
									"    }\r",
									"\r",
									"\r",
									"}"
								],
								"type": "text/javascript"
							}
						}
					],
					"request": {
						"method": "POST",
						"header": [
							{
								"key": "Content-Type",
								"value": "application/json",
								"type": "text"
							}
						],
						"body": {
							"mode": "raw",
							"raw": "\n{\n\t\"Email1\":\"ron_y@itdgroup.co23\",\n\t\"Password\":\"x9mZq4KG\"\n}",
							"options": {
								"raw": {
									"language": "json"
								}
							}
						},
						"url": {
							"raw": "{{URL}}/api/v1/webapp/signin",
							"host": [
								"{{URL}}"
							],
							"path": [
								"api",
								"v1",
								"webapp",
								"signin"
							]
						}
					},
					"response": []
				},
				{
					"name": "create new site",
					"event": [
						{
							"listen": "prerequest",
							"script": {
								"id": "46c771e1-21cd-489e-aa0b-ac021da1d529",
								"exec": [
									"function randomString(len) {\r",
									"    let str = \"\";\r",
									"    let possible = \"ABCEFGHIJKLMNOQRSTUVWXYZabcdefghijklmnopqrstuvwxyz01234567890123456789\";\r",
									"\r",
									"    for (let i = 0; i < len; i++)\r",
									"        str += possible.charAt(Math.floor(Math.random() * possible.length));\r",
									"    return str;\r",
									"}\r",
									"\r",
									"pm.environment.set(\"email\", randomString(6) + '@' + randomString(6) + '.com');\r",
									"pm.environment.set(\"socialId\", randomString(6));"
								],
								"type": "text/javascript"
							}
						}
					],
					"request": {
						"method": "POST",
						"header": [
							{
								"key": "Content-Type",
								"value": "application/json",
								"type": "text"
							},
							{
								"key": "Authorization",
								"value": "{{EyeSwiftSuperAdminToken}}",
								"type": "text"
							}
						],
						"body": {
							"mode": "raw",
							"raw": "{\n\t\"SiteName\" : \"ronsitfesddd\",\n\t\"SitePhoneNumber\" : \"425345\",\n\t\"SiteState\":\"rtwe\",\n\t\"SiteCity\":\"dfsgdfg\",\n\t\"SiteStreet\":\"dfgsdfg\",\n\t\"SiteApartment\":\"4\",\n\t\"SiteZipCode\":\"6536456\",\n\t\"SiteEmail\":\"ron_y@itdgroup.co\"\n\n}",
							"options": {
								"raw": {
									"language": "json"
								}
							}
						},
						"url": {
							"raw": "{{URL}}/api/v1/webapp/eyeSwiftAdmins/{{EyeSwiftSuperAdminUserName}}/site/signup",
							"host": [
								"{{URL}}"
							],
							"path": [
								"api",
								"v1",
								"webapp",
								"eyeSwiftAdmins",
								"{{EyeSwiftSuperAdminUserName}}",
								"site",
								"signup"
							]
						}
					},
					"response": []
				},
				{
					"name": "edit site",
					"event": [
						{
							"listen": "prerequest",
							"script": {
								"id": "ea90f3ed-5206-4f17-a20a-1f9990a7c731",
								"exec": [
									"function randomString(len) {\r",
									"    let str = \"\";\r",
									"    let possible = \"ABCEFGHIJKLMNOQRSTUVWXYZabcdefghijklmnopqrstuvwxyz01234567890123456789\";\r",
									"\r",
									"    for (let i = 0; i < len; i++)\r",
									"        str += possible.charAt(Math.floor(Math.random() * possible.length));\r",
									"    return str;\r",
									"}\r",
									"\r",
									"pm.environment.set(\"email\", randomString(6) + '@' + randomString(6) + '.com');\r",
									"pm.environment.set(\"socialId\", randomString(6));"
								],
								"type": "text/javascript"
							}
						}
					],
					"request": {
						"method": "POST",
						"header": [
							{
								"key": "Content-Type",
								"type": "text",
								"value": "application/json"
							},
							{
								"key": "Authorization",
								"type": "text",
								"value": "{{EyeSwiftAdminToken}}"
							}
						],
						"body": {
							"mode": "raw",
							"raw": "{\n\t\"SitsName\" : \"ronsitesddd\",\n\t\"SitePhoneNumber\" : \"425345\",\n\t\"SiteState\":\"rtwe\",\n\t\"SiteCity\":\"dfsgdfg\",\n\t\"SiteStreet\":\"dfgsdfg\",\n\t\"SiteApartment\":\"4\",\n\t\"SiteZipCode\":\"65364ssdfsdf56\"\n\n}",
							"options": {
								"raw": {
									"language": "json"
								}
							}
						},
						"url": {
							"raw": "{{URL}}/api/v1/webapp/eyeSwiftAdmins/{{EyeSwiftAdminUserName}}/sites/SiteID01/profile",
							"host": [
								"{{URL}}"
							],
							"path": [
								"api",
								"v1",
								"webapp",
								"eyeSwiftAdmins",
								"{{EyeSwiftAdminUserName}}",
								"sites",
								"SiteID01",
								"profile"
							]
						}
					},
					"response": []
				},
				{
					"name": "create new ecp",
					"event": [
						{
							"listen": "prerequest",
							"script": {
								"id": "0d922c56-f9d3-49f6-84b1-0c19f98a5fc5",
								"exec": [
									"function randomString(len) {\r",
									"    let str = \"\";\r",
									"    let possible = \"ABCEFGHIJKLMNOQRSTUVWXYZabcdefghijklmnopqrstuvwxyz01234567890123456789\";\r",
									"\r",
									"    for (let i = 0; i < len; i++)\r",
									"        str += possible.charAt(Math.floor(Math.random() * possible.length));\r",
									"    return str;\r",
									"}\r",
									"\r",
									"pm.environment.set(\"email\", randomString(6) + '@' + randomString(6) + '.com');\r",
									"pm.environment.set(\"socialId\", randomString(6));"
								],
								"type": "text/javascript"
							}
						}
					],
					"request": {
						"method": "POST",
						"header": [
							{
								"key": "Content-Type",
								"type": "text",
								"value": "application/json"
							},
							{
								"key": "Authorization",
								"type": "text",
								"value": "{{EyeSwiftAdminToken}}"
							}
						],
						"body": {
							"mode": "raw",
							"raw": "{\n\t\"SiteID\" : \"SiteID01\",\n    \"FirstName\":\"ron\",\n    \"LastName\":\"yehufda\",\n    \"Password\": \"123456\",\n\t\"Email1\":\"ron_y@itdgroup.co2\",\n    \"Gender\":2,\n    \"PhoneNumber\": \"546456f45\",\n    \"Profession\": 2,\n    \"MedicalLicense\":\"sdfvfds\"\n\n}",
							"options": {
								"raw": {
									"language": "json"
								}
							}
						},
						"url": {
							"raw": "{{URL}}/api/v1/webapp/eyeSwiftAdmins/{{EyeSwiftAdminUserName}}/doctors/signup",
							"host": [
								"{{URL}}"
							],
							"path": [
								"api",
								"v1",
								"webapp",
								"eyeSwiftAdmins",
								"{{EyeSwiftAdminUserName}}",
								"doctors",
								"signup"
							]
						}
					},
					"response": []
				},
				{
					"name": "edit ecp",
					"request": {
						"method": "POST",
						"header": [
							{
								"key": "Content-Type",
								"value": "application/json",
								"type": "text"
							},
							{
								"key": "Authorization",
								"value": "{{EyeSwiftAdminToken}}",
								"type": "text"
							}
						],
						"body": {
							"mode": "raw",
							"raw": "{\n    \"FirstName\":\"rofdgfdn\",\n    \"LastName\":\"yehfuda\",\n    \"Password\": \"123456\",\n\t\"Email1\":\"ron_y@itdgroup.c1o\",\n    \"Gender\":\"Male\",\n    \"PhoneNumber\": \"54645645\",\n    \"DefaultVAUnit\":\"dfs\"\n\n}",
							"options": {
								"raw": {
									"language": "json"
								}
							}
						},
						"url": {
							"raw": "{{URL}}/api/v1/webapp/eyeSwiftAdmins/{{EyeSwiftAdminUserName}}/doctors/ECPID06/profile",
							"host": [
								"{{URL}}"
							],
							"path": [
								"api",
								"v1",
								"webapp",
								"eyeSwiftAdmins",
								"{{EyeSwiftAdminUserName}}",
								"doctors",
								"ECPID06",
								"profile"
							]
						}
					},
					"response": []
				},
				{
					"name": "edit admin",
					"event": [
						{
							"listen": "prerequest",
							"script": {
								"id": "d4be5b5b-d800-4db9-b632-ea21acc2524a",
								"exec": [
									"function randomString(len) {\r",
									"    let str = \"\";\r",
									"    let possible = \"ABCEFGHIJKLMNOQRSTUVWXYZabcdefghijklmnopqrstuvwxyz01234567890123456789\";\r",
									"\r",
									"    for (let i = 0; i < len; i++)\r",
									"        str += possible.charAt(Math.floor(Math.random() * possible.length));\r",
									"    return str;\r",
									"}\r",
									"\r",
									"pm.environment.set(\"email\", randomString(6) + '@' + randomString(6) + '.com');\r",
									"pm.environment.set(\"socialId\", randomString(6));"
								],
								"type": "text/javascript"
							}
						}
					],
					"request": {
						"method": "POST",
						"header": [
							{
								"key": "Content-Type",
								"type": "text",
								"value": "application/json"
							},
							{
								"key": "Authorization",
								"type": "text",
								"value": "{{EyeSwiftSuperAdminToken}}"
							}
						],
						"body": {
							"mode": "raw",
							"raw": "{\n    \"FirstName\":\"subhi\",\n    \"LastName\":\"subhi\",\n\t\"Email1\":\"ron_y@itdgroup.co\"\n\n}",
							"options": {
								"raw": {
									"language": "json"
								}
							}
						},
						"url": {
							"raw": "{{URL}}/api/v1/webapp/eyeSwiftAdmins/{{EyeSwiftSuperAdminUserName}}/admins/AdminID13/profile",
							"host": [
								"{{URL}}"
							],
							"path": [
								"api",
								"v1",
								"webapp",
								"eyeSwiftAdmins",
								"{{EyeSwiftSuperAdminUserName}}",
								"admins",
								"AdminID13",
								"profile"
							]
						}
					},
					"response": []
				},
				{
					"name": "del admin",
					"event": [
						{
							"listen": "prerequest",
							"script": {
								"id": "418a7964-b260-447a-9b4e-39faf4a3bb15",
								"exec": [
									""
								],
								"type": "text/javascript"
							}
						}
					],
					"request": {
						"method": "DELETE",
						"header": [
							{
								"key": "Content-Type",
								"type": "text",
								"value": "application/json"
							},
							{
								"key": "Authorization",
								"type": "text",
								"value": "{{EyeSwiftSuperAdminToken}}"
							}
						],
						"body": {
							"mode": "raw",
							"raw": "",
							"options": {
								"raw": {
									"language": "json"
								}
							}
						},
						"url": {
							"raw": "{{URL}}/api/v1/webapp/eyeSwiftAdmins/{{EyeSwiftSuperAdminUserName}}/admins/AdminID01/profile",
							"host": [
								"{{URL}}"
							],
							"path": [
								"api",
								"v1",
								"webapp",
								"eyeSwiftAdmins",
								"{{EyeSwiftSuperAdminUserName}}",
								"admins",
								"AdminID01",
								"profile"
							]
						}
					},
					"response": []
				},
				{
					"name": "get all sites",
					"request": {
						"method": "GET",
						"header": [
							{
								"key": "Authorization",
								"value": "{{EyeSwiftSuperAdminToken}}",
								"type": "text"
							}
						],
						"url": {
							"raw": "{{URL}}/api/v1/webapp/eyeSwiftAdmins/{{EyeSwiftSuperAdminUserName}}/sites/getAllSites",
							"host": [
								"{{URL}}"
							],
							"path": [
								"api",
								"v1",
								"webapp",
								"eyeSwiftAdmins",
								"{{EyeSwiftSuperAdminUserName}}",
								"sites",
								"getAllSites"
							]
						}
					},
					"response": []
				},

				
				{
					"name": "get all customers",
					"request": {
						"method": "GET",
						"header": [
							{
								"key": "Authorization",
								"value": "{{EyeSwiftSuperAdminToken}}",
								"type": "text"
							}
						],
						"url": {
							"raw": "{{URL}}/api/v1/webapp/eyeSwiftAdmins/{{EyeSwiftSuperAdminUserName}}/customers/getAllCustomers",
							"host": [
								"{{URL}}"
							],
							"path": [
								"api",
								"v1",
								"webapp",
								"eyeSwiftAdmins",
								"{{EyeSwiftSuperAdminUserName}}",
								"customers",
								"getAllCustomers"
							]
						}
					},
					"response": []
				},

				{
					"name": "get all doctors",
					"request": {
						"method": "GET",
						"header": [
							{
								"key": "Authorization",
								"value": "{{EyeSwiftSuperAdminToken}}",
								"type": "text"
							}
						],
						"url": {
							"raw": "{{URL}}/api/v1/webapp/eyeSwiftAdmins/{{EyeSwiftSuperAdminUserName}}/doctors/getAllECP",
							"host": [
								"{{URL}}"
							],
							"path": [
								"api",
								"v1",
								"webapp",
								"eyeSwiftAdmins",
								"{{EyeSwiftSuperAdminUserName}}",
								"doctors",
								"getAllECP"
							]
						}
					},
					"response": []
				},
				{
					"name": "get all devices",
					"request": {
						"method": "GET",
						"header": [
							{
								"key": "Authorization",
								"type": "text",
								"value": "{{EyeSwiftAdminToken}}"
							}
						],
						"url": {
							"raw": "{{URL}}/api/v1/webapp/eyeSwiftAdmins/{{EyeSwiftAdminUserName}}/devices/getAllDevices",
							"host": [
								"{{URL}}"
							],
							"path": [
								"api",
								"v1",
								"webapp",
								"eyeSwiftAdmins",
								"{{EyeSwiftAdminUserName}}",
								"devices",
								"getAllDevices"
							]
						}
					},
					"response": []
				},
				{
					"name": "get all admins",
					"request": {
						"method": "GET",
						"header": [
							{
								"key": "Authorization",
								"type": "text",
								"value": "{{EyeSwiftSuperAdminToken}}"
							}
						],
						"url": {
							"raw": "{{URL}}/api/v1/webapp/eyeSwiftAdmins/{{EyeSwiftSuperAdminUserName}}/admins/getAllAdmins",
							"host": [
								"{{URL}}"
							],
							"path": [
								"api",
								"v1",
								"webapp",
								"eyeSwiftAdmins",
								"{{EyeSwiftSuperAdminUserName}}",
								"admins",
								"getAllAdmins"
							]
						}
					},
					"response": []
				},
				{
					"name": "AllPatients Total Compliance",
					"request": {
						"method": "GET",
						"header": [
							{
								"key": "Authorization",
								"value": "{{EyeSwiftSuperAdminToken}}",
								"type": "text"
							}
						],
						"url": {
							"raw": "{{URL}}/api/v1/webapp/eyeSwiftAdmins/{{EyeSwiftSuperAdminUserName}}/patients/getAllPatientsTotalCompliance",
							"host": [
								"{{URL}}"
							],
							"path": [
								"api",
								"v1",
								"webapp",
								"eyeSwiftAdmins",
								"{{EyeSwiftSuperAdminUserName}}",
								"patients",
								"getAllPatientsTotalCompliance"
							]
						}
					},
					"response": []
				},
				{
					"name": "AllPatients  Compliance by days",
					"request": {
						"method": "GET",
						"header": [
							{
								"key": "Authorization",
								"value": "{{EyeSwiftAdminToken}}",
								"type": "text"
							}
						],
						"url": {
							"raw": "{{URL}}/api/v1/webapp/eyeSwiftAdmins/{{EyeSwiftAdminUserName}}/patients/getAllPatientsComplianceByDays?days=30",
							"host": [
								"{{URL}}"
							],
							"path": [
								"api",
								"v1",
								"webapp",
								"eyeSwiftAdmins",
								"{{EyeSwiftAdminUserName}}",
								"patients",
								"getAllPatientsComplianceByDays"
							],
							"query": [
								{
									"key": "days",
									"value": "30"
								}
							]
						}
					},
					"response": []
				},
				{
					"name": "get all versions",
					"request": {
						"method": "GET",
						"header": [
							{
								"key": "Authorization",
								"type": "text",
								"value": "{{EyeSwiftSuperAdminToken}}"
							}
						],
						"url": {
							"raw": "{{URL}}/api/v1/webapp/eyeSwiftAdmins/{{EyeSwiftSuperAdminUserName}}/versions/getAllVersions",
							"host": [
								"{{URL}}"
							],
							"path": [
								"api",
								"v1",
								"webapp",
								"eyeSwiftAdmins",
								"{{EyeSwiftSuperAdminUserName}}",
								"versions",
								"getAllVersions"
							]
						}
					},
					"response": []
				},
				{
					"name": "add version",
					"event": [
						{
							"listen": "prerequest",
							"script": {
								"id": "c22fe7f4-01b8-43f8-a46e-a3195858034e",
								"exec": [
									"    // VersionType: DataTypes.STRING,     // WIN, CSAPP, ET\r",
									"    // VersionNO:   DataTypes.STRING,\r",
									"    // VersionURL:  DataTypes.STRING,"
								],
								"type": "text/javascript"
							}
						}
					],
					"request": {
						"method": "POST",
						"header": [
							{
								"key": "Authorization",
								"type": "text",
								"value": "{{EyeSwiftSuperAdminToken}}"
							},
							{
								"key": "Content-Type",
								"type": "text",
								"value": "application/json"
							}
						],
						"body": {
							"mode": "raw",
							"raw": "{\r\n    \"VersionType\": \"WIN\",\r\n    \"VersionNO\":  \"01.20.01\",\r\n    \"VersionURL\": \"https://google.com\"\r\n\r\n}",
							"options": {
								"raw": {}
							}
						},
						"url": {
							"raw": "{{URL}}/api/v1/webapp/eyeSwiftAdmins/{{EyeSwiftSuperAdminUserName}}/versions/addNewVersion",
							"host": [
								"{{URL}}"
							],
							"path": [
								"api",
								"v1",
								"webapp",
								"eyeSwiftAdmins",
								"{{EyeSwiftSuperAdminUserName}}",
								"versions",
								"addNewVersion"
							]
						}
					},
					"response": []
				},
				{
					"name": "edit version",
					"request": {
						"method": "POST",
						"header": [
							{
								"key": "Authorization",
								"type": "text",
								"value": "{{EyeSwiftSuperAdminToken}}"
							}
						],
						"body": {
							"mode": "raw",
							"raw": "{           \r\n    \"SystemVersionID\": 1,\r\n    \"VersionType\": \"WIN\",\r\n    \"VersionNO\":  \"1111111111\",\r\n    \"VersionURL\": \"DFSADFSADF\"\r\n\r\n  }",
							"options": {
								"raw": {
									"language": "json"
								}
							}
						},
						"url": {
							"raw": "{{URL}}/api/v1/webapp/eyeSwiftAdmins/{{EyeSwiftSuperAdminUserName}}/versions/editVersion",
							"host": [
								"{{URL}}"
							],
							"path": [
								"api",
								"v1",
								"webapp",
								"eyeSwiftAdmins",
								"{{EyeSwiftSuperAdminUserName}}",
								"versions",
								"editVersion"
							]
						}
					},
					"response": []
				},
				{
					"name": "delete version",
					"event": [
						{
							"listen": "test",
							"script": {
								"id": "de5375a7-75ff-4bc3-929f-c021f3915487",
								"exec": [
									"// param - version id"
								],
								"type": "text/javascript"
							}
						}
					],
					"request": {
						"method": "DELETE",
						"header": [
							{
								"key": "Authorization",
								"type": "text",
								"value": "{{EyeSwiftSuperAdminToken}}"
							}
						],
						"body": {
							"mode": "raw",
							"raw": "",
							"options": {
								"raw": {
									"language": "json"
								}
							}
						},
						"url": {
							"raw": "{{URL}}/api/v1/webapp/eyeSwiftAdmins/{{EyeSwiftSuperAdminUserName}}/versions/1",
							"host": [
								"{{URL}}"
							],
							"path": [
								"api",
								"v1",
								"webapp",
								"eyeSwiftAdmins",
								"{{EyeSwiftSuperAdminUserName}}",
								"versions",
								"1"
							]
						}
					},
					"response": []
				},
				{
					"name": "send mssages to patient",
					"request": {
						"method": "POST",
						"header": [
							{
								"key": "Authorization",
								"type": "text",
								"value": "{{EyeSwiftSuperAdminToken}}"
							},
							{
								"key": "Content-Type",
								"type": "text",
								"value": "application/json"
							}
						],
						"body": {
							"mode": "raw",
							"raw": "{\r\n\"Method\": \"SMS\",\r\n\"PatientsIDs\":[\"UserID05\"]\r\n\r\n}",
							"options": {
								"raw": {}
							}
						},
						"url": {
							"raw": "{{URL}}/api/v1/webapp/eyeSwiftAdmins/{{EyeSwiftSuperAdminUserName}}/patients/sendMessages",
							"host": [
								"{{URL}}"
							],
							"path": [
								"api",
								"v1",
								"webapp",
								"eyeSwiftAdmins",
								"{{EyeSwiftSuperAdminUserName}}",
								"patients",
								"sendMessages"
							]
						}
					},
					"response": []
				},
				{
					"name": "send mssages to doctor",
					"request": {
						"method": "POST",
						"header": [
							{
								"key": "Authorization",
								"type": "text",
								"value": "{{EyeSwiftSuperAdminToken}}"
							},
							{
								"key": "Content-Type",
								"type": "text",
								"value": "application/json"
							}
						],
						"body": {
							"mode": "raw",
							"raw": "{\r\n\"Method\": \"SMS\",\r\n\"DoctorsIDs\":[\"UserID05\"]\r\n\r\n}",
							"options": {
								"raw": {}
							}
						},
						"url": {
							"raw": "{{URL}}/api/v1/webapp/eyeSwiftAdmins/{{EyeSwiftSuperAdminUserName}}/doctors/sendMessages",
							"host": [
								"{{URL}}"
							],
							"path": [
								"api",
								"v1",
								"webapp",
								"eyeSwiftAdmins",
								"{{EyeSwiftSuperAdminUserName}}",
								"doctors",
								"sendMessages"
							]
						}
					},
					"response": []
				}
			],
			"protocolProfileBehavior": {}
		},
		{
			"name": "ECP",
			"item": [
				{
					"name": "webapp-login",
					"event": [
						{
							"listen": "test",
							"script": {
								"id": "5477e538-4377-44d7-a881-37009b079521",
								"exec": [
									"if (responseCode.code === 200) {\r",
									"    try {\r",
									"        var location_data = JSON.parse(responseBody),\r",
									"            token = location_data.token;\r",
									"        UserID = location_data.profile.UserID\r",
									"        role = location_data.role\r",
									"    } catch (e) {\r",
									"        console.log(e);\r",
									"        return\r",
									"    }\r",
									"    if (role && role.indexOf(\"Patient\") > -1) {\r",
									"        postman.setEnvironmentVariable('PatientToken', token);\r",
									"        postman.setEnvironmentVariable('PatientUserName', UserID);\r",
									"        //postman.getEnvironmentVariable(\"key\");\r",
									"    }\r",
									"    if (role && role.indexOf(\"Doctor\") > -1) {\r",
									"        postman.setEnvironmentVariable('DoctorToken', token);\r",
									"        postman.setEnvironmentVariable('DoctorUserName', UserID);\r",
									"    }\r",
									"    if (role && role.indexOf(\"EyeSwiftAdmin\") > -1) {\r",
									"        postman.setEnvironmentVariable('EyeSwiftAdminToken', token);\r",
									"        postman.setEnvironmentVariable('EyeSwiftAdminUserName', UserID);\r",
									"    }\r",
									"\r",
									"\r",
									"}"
								],
								"type": "text/javascript"
							}
						}
					],
					"request": {
						"method": "POST",
						"header": [
							{
								"key": "Content-Type",
								"value": "application/json",
								"type": "text"
							}
						],
						"body": {
							"mode": "raw",
							"raw": "\n{\n\t\"Email1\":\"dana.paniri@gmail.com\",\n\t\"Password\":\"123456aA!\"\n}",
							"options": {
								"raw": {
									"language": "json"
								}
							}
						},
						"url": {
							"raw": "{{URL}}/api/v1/webapp/signin",
							"host": [
								"{{URL}}"
							],
							"path": [
								"api",
								"v1",
								"webapp",
								"signin"
							]
						}
					},
					"response": []
				},
				{
					"name": "create patient",
					"event": [
						{
							"listen": "prerequest",
							"script": {
								"id": "53a28f9d-1182-46bd-a890-23c6ae7b5ec3",
								"exec": [
									"function randomString(len) {\r",
									"    let str = \"\";\r",
									"    let possible = \"ABCEFGHIJKLMNOQRSTUVWXYZabcdefghijklmnopqrstuvwxyz01234567890123456789\";\r",
									"\r",
									"    for (let i = 0; i < len; i++)\r",
									"        str += possible.charAt(Math.floor(Math.random() * possible.length));\r",
									"    return str;\r",
									"}\r",
									"\r",
									"pm.environment.set(\"email\", randomString(6) + '@' + randomString(6) + '.com');\r",
									"pm.environment.set(\"socialId\", randomString(6));"
								],
								"type": "text/javascript"
							}
						}
					],
					"request": {
						"method": "POST",
						"header": [
							{
								"key": "Authorization",
								"value": "{{DoctorToken}}",
								"type": "text"
							},
							{
								"key": "Content-Type",
								"value": "application/json",
								"type": "text"
							}
						],
						"body": {
							"mode": "raw",
							"raw": "{\n    \"FirstName\":\"ron\",\n    \"LastName\":\"yyyy\",\n\t\"Email1\":\"ron@itdgroup.co3\",\n    \"Gender\":2,\n    \"PhoneNumber\": \"54645645\",\n    \"Birthdate\" : \"dfsdf\",\n\n    \"VisitDate\":\"2020-01-14T18:58:01.024Z\",\n    \"AmblyopicEye\":1,\n\n    \"RightEyeDistanceVA\":5.5,\n    \"LeftEyeDistanceVA\":5.5,\n    \"WeeklyNumberOfSessions\":2,\n    \"RecommendedSessionTime\":0.5,\n    \"TreatmentDuration\":1\n\n}",
							"options": {
								"raw": {
									"language": "json"
								}
							}
						},
						"url": {
							"raw": "{{URL}}/api/v1/webapp/eyeCareProviders/{{DoctorUserName}}/patients/signup",
							"host": [
								"{{URL}}"
							],
							"path": [
								"api",
								"v1",
								"webapp",
								"eyeCareProviders",
								"{{DoctorUserName}}",
								"patients",
								"signup"
							]
						}
					},
					"response": []
				},
				{
					"name": "edit my patient",
					"event": [
						{
							"listen": "prerequest",
							"script": {
								"id": "2b017048-5fdf-4477-bfb1-3d56ef44fa26",
								"exec": [
									"function randomString(len) {\r",
									"    let str = \"\";\r",
									"    let possible = \"ABCEFGHIJKLMNOQRSTUVWXYZabcdefghijklmnopqrstuvwxyz01234567890123456789\";\r",
									"\r",
									"    for (let i = 0; i < len; i++)\r",
									"        str += possible.charAt(Math.floor(Math.random() * possible.length));\r",
									"    return str;\r",
									"}\r",
									"\r",
									"pm.environment.set(\"email\", randomString(6) + '@' + randomString(6) + '.com');\r",
									"pm.environment.set(\"socialId\", randomString(6));"
								],
								"type": "text/javascript"
							}
						}
					],
					"request": {
						"method": "POST",
						"header": [
							{
								"key": "Authorization",
								"type": "text",
								"value": "{{DoctorToken}}"
							},
							{
								"key": "Content-Type",
								"type": "text",
								"value": "application/json"
							}
						],
						"body": {
							"mode": "raw",
							"raw": "{\n    \"FirstName\":\"ronnewwwww\",\n    \"LastName\":\"yehuda\",\n    \"Gender\":2,\n    \"PhoneNumber\": \"54645645\",\n    \t\"Email1\":\"tt@tt.com3\"\n\n}",
							"options": {
								"raw": {
									"language": "json"
								}
							}
						},
						"url": {
							"raw": "{{URL}}/api/v1/webapp/eyeCareProviders/{{DoctorUserName}}/patients/{{PatientUserName}}/profile",
							"host": [
								"{{URL}}"
							],
							"path": [
								"api",
								"v1",
								"webapp",
								"eyeCareProviders",
								"{{DoctorUserName}}",
								"patients",
								"{{PatientUserName}}",
								"profile"
							]
						}
					},
					"response": []
				},
				{
					"name": "delete my patient",
					"event": [
						{
							"listen": "prerequest",
							"script": {
								"id": "f344b110-48e8-4616-90c5-6996b59b4651",
								"exec": [
									"function randomString(len) {\r",
									"    let str = \"\";\r",
									"    let possible = \"ABCEFGHIJKLMNOQRSTUVWXYZabcdefghijklmnopqrstuvwxyz01234567890123456789\";\r",
									"\r",
									"    for (let i = 0; i < len; i++)\r",
									"        str += possible.charAt(Math.floor(Math.random() * possible.length));\r",
									"    return str;\r",
									"}\r",
									"\r",
									"pm.environment.set(\"email\", randomString(6) + '@' + randomString(6) + '.com');\r",
									"pm.environment.set(\"socialId\", randomString(6));"
								],
								"type": "text/javascript"
							}
						}
					],
					"request": {
						"method": "DELETE",
						"header": [
							{
								"key": "Authorization",
								"type": "text",
								"value": "{{DoctorToken}}"
							},
							{
								"key": "Content-Type",
								"type": "text",
								"value": "application/json"
							}
						],
						"body": {
							"mode": "raw",
							"raw": "",
							"options": {
								"raw": {
									"language": "json"
								}
							}
						},
						"url": {
							"raw": "{{URL}}/api/v1/webapp/eyeCareProviders/{{DoctorUserName}}/patients/{{PatientUserName}}/profile",
							"host": [
								"{{URL}}"
							],
							"path": [
								"api",
								"v1",
								"webapp",
								"eyeCareProviders",
								"{{DoctorUserName}}",
								"patients",
								"{{PatientUserName}}",
								"profile"
							]
						}
					},
					"response": []
				},
				{
					"name": "get doctor profile",
					"request": {
						"method": "GET",
						"header": [
							{
								"key": "Authorization",
								"value": "{{DoctorToken}}",
								"type": "text"
							},
							{
								"key": "Content-Type",
								"value": "application/json",
								"type": "text"
							}
						],
						"url": {
							"raw": "{{URL}}/api/v1/webapp/eyeCareProviders/{{DoctorUserName}}/profile",
							"host": [
								"{{URL}}"
							],
							"path": [
								"api",
								"v1",
								"webapp",
								"eyeCareProviders",
								"{{DoctorUserName}}",
								"profile"
							]
						}
					},
					"response": []
				},
				{
					"name": "get all doctor patients",
					"request": {
						"method": "GET",
						"header": [
							{
								"key": "Authorization",
								"value": "{{DoctorToken}}",
								"type": "text"
							},
							{
								"key": "Content-Type",
								"value": "application/json",
								"type": "text"
							}
						],
						"url": {
							"raw": "{{URL}}/api/v1/webapp/eyeCareProviders/{{DoctorUserName}}/getallpatients?archive=false",
							"host": [
								"{{URL}}"
							],
							"path": [
								"api",
								"v1",
								"webapp",
								"eyeCareProviders",
								"{{DoctorUserName}}",
								"getallpatients"
							],
							"query": [
								{
									"key": "archive",
									"value": "false"
								}
							]
						}
					},
					"response": []
				},
				{
					"name": "send mssages to patient",
					"request": {
						"method": "POST",
						"header": [
							{
								"key": "Authorization",
								"type": "text",
								"value": "{{DoctorToken}}"
							},
							{
								"key": "Content-Type",
								"type": "text",
								"value": "application/json"
							}
						],
						"body": {
							"mode": "raw",
							"raw": "{\r\n\"Method\": \"SMS\",\r\n\"PatientsIDs\":[\"UserID05\"]\r\n\r\n}"
						},
						"url": {
							"raw": "{{URL}}/api/v1/webapp/eyeCareProviders/{{DoctorUserName}}/patients/sendMessages",
							"host": [
								"{{URL}}"
							],
							"path": [
								"api",
								"v1",
								"webapp",
								"eyeCareProviders",
								"{{DoctorUserName}}",
								"patients",
								"sendMessages"
							]
						}
					},
					"response": []
				},
				{
					"name": "get patient profile by id",
					"protocolProfileBehavior": {
						"disableBodyPruning": true
					},
					"request": {
						"method": "GET",
						"header": [
							{
								"key": "Authorization",
								"value": "{{DoctorToken}}",
								"type": "text"
							},
							{
								"key": "Content-Type",
								"value": "application/json",
								"type": "text"
							}
						],
						"body": {
							"mode": "raw",
							"raw": ""
						},
						"url": {
							"raw": "{{URL}}/api/v1/webapp/eyeCareProviders/{{DoctorUserName}}/patients/{{PatientUserName}}/profile",
							"host": [
								"{{URL}}"
							],
							"path": [
								"api",
								"v1",
								"webapp",
								"eyeCareProviders",
								"{{DoctorUserName}}",
								"patients",
								"{{PatientUserName}}",
								"profile"
							]
						}
					},
					"response": []
				},
				{
					"name": "get patient last visit by id",
					"protocolProfileBehavior": {
						"disableBodyPruning": true
					},
					"request": {
						"method": "GET",
						"header": [
							{
								"key": "Authorization",
								"type": "text",
								"value": "{{DoctorToken}}"
							},
							{
								"key": "Content-Type",
								"type": "text",
								"value": "application/json"
							}
						],
						"body": {
							"mode": "raw",
							"raw": ""
						},
						"url": {
							"raw": "{{URL}}/api/v1/webapp/eyeCareProviders/{{DoctorUserName}}/patients/{{PatientUserName}}/getLastVisit",
							"host": [
								"{{URL}}"
							],
							"path": [
								"api",
								"v1",
								"webapp",
								"eyeCareProviders",
								"{{DoctorUserName}}",
								"patients",
								"{{PatientUserName}}",
								"getLastVisit"
							]
						}
					},
					"response": []
				},
				{
					"name": "add new visit",
					"request": {
						"method": "POST",
						"header": [
							{
								"key": "Authorization",
								"value": "{{DoctorToken}}",
								"type": "text"
							},
							{
								"key": "Content-Type",
								"value": "application/json",
								"type": "text"
							}
						],
						"body": {
							"mode": "raw",
							"raw": "{\n\n\n    \"VisitDate\":\"2020-01-14T18:58:01.024Z\",\n    \n    \"AmblyopicEye\":1,\n\n    \"RightEyeNearVA\":5.5,\n    \"LeftEyeNearVA\":5.5,\n    \"WeeklyNumberOfSessions\":2,\n    \"RecommendedSessionTime\":0.5,\n    \"TreatmentDuration\":1\n}",
							"options": {
								"raw": {
									"language": "json"
								}
							}
						},
						"url": {
							"raw": "{{URL}}/api/v1/webapp/eyeCareProviders/{{DoctorUserName}}/patients/{{PatientUserName}}/addNewVisit",
							"host": [
								"{{URL}}"
							],
							"path": [
								"api",
								"v1",
								"webapp",
								"eyeCareProviders",
								"{{DoctorUserName}}",
								"patients",
								"{{PatientUserName}}",
								"addNewVisit"
							]
						}
					},
					"response": []
				},
				{
					"name": "get all TotalCompliance",
					"event": [
						{
							"listen": "test",
							"script": {
								"id": "d8151894-f7f3-438f-9398-aa9ae3f95a47",
								"exec": [
									"// can query patientid"
								],
								"type": "text/javascript"
							}
						}
					],
					"request": {
						"method": "GET",
						"header": [
							{
								"key": "Authorization",
								"type": "text",
								"value": "{{DoctorToken}}"
							},
							{
								"key": "Content-Type",
								"type": "text",
								"value": "application/json"
							}
						],
						"url": {
							"raw": "{{URL}}/api/v1/webapp/eyeCareProviders/{{DoctorUserName}}/getAllmyPatientsTotalCompliance",
							"host": [
								"{{URL}}"
							],
							"path": [
								"api",
								"v1",
								"webapp",
								"eyeCareProviders",
								"{{DoctorUserName}}",
								"getAllmyPatientsTotalCompliance"
							]
						}
					},
					"response": []
				},
				{
					"name": "get all patients Compliance by days",
					"request": {
						"method": "GET",
						"header": [
							{
								"key": "Authorization",
								"type": "text",
								"value": "{{DoctorToken}}"
							},
							{
								"key": "Content-Type",
								"type": "text",
								"value": "application/json"
							}
						],
						"url": {
							"raw": "{{URL}}/api/v1/webapp/eyeCareProviders/{{DoctorUserName}}/getAllPatientsComplianceByDays?days=30",
							"host": [
								"{{URL}}"
							],
							"path": [
								"api",
								"v1",
								"webapp",
								"eyeCareProviders",
								"{{DoctorUserName}}",
								"getAllPatientsComplianceByDays"
							],
							"query": [
								{
									"key": "days",
									"value": "30"
								}
							]
						}
					},
					"response": []
				}
			],
			"protocolProfileBehavior": {}
		},
		{
			"name": "device-patients",
			"item": [
				{
					"name": "devices-login",
					"event": [
						{
							"listen": "test",
							"script": {
								"id": "8350234f-6591-406a-8c6e-10a8d049eb94",
								"exec": [
									"if (responseCode.code === 200) {\r",
									"    try {\r",
									"        var location_data = JSON.parse(responseBody),\r",
									"            token = location_data.Token;\r",
									"        UserID = location_data.Profile.PatientID\r",
									"        role = location_data.Role\r",
									"    } catch (e) {\r",
									"        console.log(e);\r",
									"        return\r",
									"    }\r",
									"    if (role && role.indexOf(\"Patient\") > -1) {\r",
									"        postman.setEnvironmentVariable('PatientToken', token);\r",
									"        postman.setEnvironmentVariable('PatientUserName', UserID);\r",
									"    }\r",
									"\r",
									"\r",
									"}"
								],
								"type": "text/javascript"
							}
						}
					],
					"request": {
						"method": "POST",
						"header": [
							{
								"key": "Content-Type",
								"type": "text",
								"value": "application/json"
							},
							{
								"key": "SerialNumber",
								"type": "text",
								"value": "123444321"
							}
						],
						"body": {
							"mode": "raw",
							"raw": "\n{\n\t\"PatientID\":\"PatientID01\",\n\t\"Password\":\"2u4EvFtb\",\n\t\n\t\"CSVersion\" : \"1.0\",\n\t\"WindowsVersion\": \"1.0\",\n\t\"ETFirmwareVersion\" : \"1.0\"\n}",
							"options": {
								"raw": {
									"language": "json"
								}
							}
						},
						"url": {
							"raw": "{{URL}}/api/v1/devices/signin",
							"host": [
								"{{URL}}"
							],
							"path": [
								"api",
								"v1",
								"devices",
								"signin"
							]
						}
					},
					"response": []
				},
				{
					"name": "devices-UpdateTreatment",
					"event": [
						{
							"listen": "test",
							"script": {
								"id": "40d6831c-66c2-458d-9d02-6b24e0631992",
								"exec": [
									""
								],
								"type": "text/javascript"
							}
						}
					],
					"request": {
						"method": "POST",
						"header": [
							{
								"key": "Content-Type",
								"type": "text",
								"value": "application/json"
							},
							{
								"key": "SerialNumber",
								"type": "text",
								"value": "1234"
							},
							{
								"key": "Authorization",
								"type": "text",
								"value": "{{PatientToken}}"
							}
						],
						"body": {
							"mode": "raw",
							"raw": "[\n\t{\"StartTreatment\":\"2020-06-14T12:01:55Z\" , \"EndTreatment\":\"2020-06-14T12:02:55Z\"},\n\t{\"StartTreatment\":\"2020-06-14T12:01:10Z\" , \"EndTreatment\":\"2020-06-14T12:05:05Z\"}\n\n]",
							"options": {
								"raw": {
									"language": "json"
								}
							}
						},
						"url": {
							"raw": "{{URL}}/api/v1/devices/{{PatientUserName}}/UpdateTreatment",
							"host": [
								"{{URL}}"
							],
							"path": [
								"api",
								"v1",
								"devices",
								"{{PatientUserName}}",
								"UpdateTreatment"
							]
						}
					},
					"response": []
				},
				{
					"name": "devices-set Signed TermOfUse",
					"event": [
						{
							"listen": "test",
							"script": {
								"id": "5a6c83b5-c66a-4908-9aca-c758514110bc",
								"exec": [
									""
								],
								"type": "text/javascript"
							}
						}
					],
					"request": {
						"method": "POST",
						"header": [
							{
								"key": "Content-Type",
								"type": "text",
								"value": "application/json"
							},
							{
								"key": "SerialNumber",
								"type": "text",
								"value": "1234"
							},
							{
								"key": "Authorization",
								"value": "{{PatientToken}}",
								"type": "text"
							}
						],
						"body": {
							"mode": "raw",
							"raw": "",
							"options": {
								"raw": {
									"language": "json"
								}
							}
						},
						"url": {
							"raw": "{{URL}}/api/v1/devices/{{PatientUserName}}/setSignedTerm",
							"host": [
								"{{URL}}"
							],
							"path": [
								"api",
								"v1",
								"devices",
								"{{PatientUserName}}",
								"setSignedTerm"
							]
						}
					},
					"response": []
				},
				{
					"name": "devices-set System Status",
					"event": [
						{
							"listen": "test",
							"script": {
								"id": "cd3026cc-fc3e-4df6-b30d-5beb160f0592",
								"exec": [
									""
								],
								"type": "text/javascript"
							}
						}
					],
					"request": {
						"method": "POST",
						"header": [
							{
								"key": "Content-Type",
								"type": "text",
								"value": "application/json"
							},
							{
								"key": "SerialNumber",
								"type": "text",
								"value": "1234"
							},
							{
								"key": "Authorization",
								"type": "text",
								"value": "{{PatientToken}}"
							}
						],
						"body": {
							"mode": "raw",
							"raw": "{\"SystemStatus\":\"error1\"}",
							"options": {
								"raw": {
									"language": "json"
								}
							}
						},
						"url": {
							"raw": "{{URL}}/api/v1/devices/{{PatientUserName}}/setSystemStatus",
							"host": [
								"{{URL}}"
							],
							"path": [
								"api",
								"v1",
								"devices",
								"{{PatientUserName}}",
								"setSystemStatus"
							]
						}
					},
					"response": []
				},
				{
					"name": "reset password",
					"event": [
						{
							"listen": "test",
							"script": {
								"id": "d3ff31d4-b82a-41fa-94fc-679a0d4a5f8b",
								"exec": [
									""
								],
								"type": "text/javascript"
							}
						}
					],
					"request": {
						"method": "POST",
						"header": [
							{
								"key": "Content-Type",
								"type": "text",
								"value": "application/json"
							},
							{
								"key": "SerialNumber",
								"type": "text",
								"value": "1234"
							},
							{
								"key": "Authorization",
								"type": "text",
								"value": "{{PatientToken}}"
							}
						],
						"body": {
							"mode": "raw",
							"raw": "\n\t{\"PatientID\":\"PatientID01\" }\n\n\n",
							"options": {
								"raw": {
									"language": "json"
								}
							}
						},
						"url": {
							"raw": "{{URL}}/api/v1/devices/forgetPass",
							"host": [
								"{{URL}}"
							],
							"path": [
								"api",
								"v1",
								"devices",
								"forgetPass"
							]
						}
					},
					"response": []
				}
			],
			"protocolProfileBehavior": {}
		},
		{
			"name": "info get",
			"request": {
				"method": "GET",
				"header": [],
				"url": {
					"raw": "{{URL}}/api/v1/webapp/general/version",
					"host": [
						"{{URL}}"
					],
					"path": [
						"api",
						"v1",
						"webapp",
						"general",
						"version"
					]
				}
			},
			"response": []
		},
		{
			"name": "route list",
			"request": {
				"method": "GET",
				"header": [],
				"url": {
					"raw": "{{URL}}/api/v1/webapp/general/routeList",
					"host": [
						"{{URL}}"
					],
					"path": [
						"api",
						"v1",
						"webapp",
						"general",
						"routeList"
					]
				}
			},
			"response": []
		},
		{
			"name": "reset password for all web",
			"event": [
				{
					"listen": "test",
					"script": {
						"id": "46b83ffa-4bd2-41da-8146-374010137b2a",
						"exec": [
							""
						],
						"type": "text/javascript"
					}
				}
			],
			"request": {
				"method": "POST",
				"header": [
					{
						"key": "Content-Type",
						"type": "text",
						"value": "application/json"
					},
					{
						"key": "SerialNumber",
						"type": "text",
						"value": "1234"
					},
					{
						"key": "Authorization",
						"type": "text",
						"value": "{{PatientToken}}"
					}
				],
				"body": {
					"mode": "raw",
					"raw": "\n\t{\"Email1\":\"ron_y@itdgroup.co\" }\n\n\n",
					"options": {
						"raw": {
							"language": "json"
						}
					}
				},
				"url": {
					"raw": "{{URL}}/api/v1/webapp/forgetPass",
					"host": [
						"{{URL}}"
					],
					"path": [
						"api",
						"v1",
						"webapp",
						"forgetPass"
					]
				}
			},
			"response": []
		},
		{
			"name": "change password all web users",
			"event": [
				{
					"listen": "prerequest",
					"script": {
						"id": "d86ccf94-3121-47ce-9c39-2d5fb99d8e08",
						"exec": [
							"function randomString(len) {",
							"    let str = \"\";",
							"    let possible = \"ABCEFGHIJKLMNOQRSTUVWXYZabcdefghijklmnopqrstuvwxyz01234567890123456789\";",
							"",
							"    for (let i = 0; i < len; i++)",
							"        str += possible.charAt(Math.floor(Math.random() * possible.length));",
							"    return str;",
							"}",
							"",
							"pm.environment.set(\"email\", randomString(6)+'@'+ randomString(6) +'.com');",
							"pm.environment.set(\"socialId\", randomString(6));"
						],
						"type": "text/javascript"
					}
				}
			],
			"request": {
				"method": "POST",
				"header": [
					{
						"key": "Content-Type",
						"type": "text",
						"value": "application/json"
					},
					{
						"key": "Authorization",
						"type": "text",
						"value": "{{LiberDiAdminToken}}"
					}
				],
				"body": {
					"mode": "raw",
					"raw": "{\n    \"newPassword\" : \"dsfsdfsd\"\n}",
					"options": {
						"raw": {
							"language": "json"
						}
					}
				},
				"url": {
					"raw": "{{URL}}/api/v1/webapp/users/userid01/changePass",
					"host": [
						"{{URL}}"
					],
					"path": [
						"api",
						"v1",
						"webapp",
						"users",
						"userid01",
						"changePass"
					]
				}
			},
			"response": []
		}
	],
	"protocolProfileBehavior": {}
}